<?xml version="1.0" encoding="utf-8"?>
<!DOCTYPE eagle SYSTEM "eagle.dtd">
<eagle version="9.3.0">
<drawing>
<settings>
<setting alwaysvectorfont="no"/>
<setting verticaltext="up"/>
</settings>
<grid distance="5" unitdist="mil" unit="mil" style="lines" multiple="1" display="no" altdistance="5" altunitdist="mil" altunit="mil"/>
<layers>
<layer number="1" name="Top" color="4" fill="1" visible="yes" active="yes"/>
<layer number="2" name="Route2" color="16" fill="1" visible="no" active="no"/>
<layer number="3" name="Route3" color="17" fill="1" visible="no" active="no"/>
<layer number="4" name="Route4" color="18" fill="1" visible="no" active="no"/>
<layer number="5" name="Route5" color="19" fill="1" visible="no" active="no"/>
<layer number="6" name="Route6" color="25" fill="1" visible="no" active="no"/>
<layer number="7" name="Route7" color="26" fill="1" visible="no" active="no"/>
<layer number="8" name="Route8" color="27" fill="1" visible="no" active="no"/>
<layer number="9" name="Route9" color="28" fill="1" visible="no" active="no"/>
<layer number="10" name="Route10" color="29" fill="1" visible="no" active="no"/>
<layer number="11" name="Route11" color="30" fill="1" visible="no" active="no"/>
<layer number="12" name="Route12" color="20" fill="1" visible="no" active="no"/>
<layer number="13" name="Route13" color="21" fill="1" visible="no" active="no"/>
<layer number="14" name="Route14" color="22" fill="1" visible="no" active="no"/>
<layer number="15" name="Route15" color="23" fill="1" visible="no" active="no"/>
<layer number="16" name="Bottom" color="1" fill="1" visible="yes" active="yes"/>
<layer number="17" name="Pads" color="2" fill="1" visible="yes" active="yes"/>
<layer number="18" name="Vias" color="2" fill="1" visible="yes" active="yes"/>
<layer number="19" name="Unrouted" color="6" fill="1" visible="yes" active="yes"/>
<layer number="20" name="Dimension" color="24" fill="1" visible="yes" active="yes"/>
<layer number="21" name="tPlace" color="7" fill="1" visible="yes" active="yes"/>
<layer number="22" name="bPlace" color="7" fill="1" visible="yes" active="yes"/>
<layer number="23" name="tOrigins" color="15" fill="1" visible="yes" active="yes"/>
<layer number="24" name="bOrigins" color="15" fill="1" visible="yes" active="yes"/>
<layer number="25" name="tNames" color="7" fill="1" visible="yes" active="yes"/>
<layer number="26" name="bNames" color="7" fill="1" visible="yes" active="yes"/>
<layer number="27" name="tValues" color="7" fill="1" visible="yes" active="yes"/>
<layer number="28" name="bValues" color="7" fill="1" visible="yes" active="yes"/>
<layer number="29" name="tStop" color="7" fill="3" visible="yes" active="yes"/>
<layer number="30" name="bStop" color="7" fill="6" visible="yes" active="yes"/>
<layer number="31" name="tCream" color="7" fill="4" visible="yes" active="yes"/>
<layer number="32" name="bCream" color="7" fill="5" visible="yes" active="yes"/>
<layer number="33" name="tFinish" color="6" fill="3" visible="yes" active="yes"/>
<layer number="34" name="bFinish" color="6" fill="6" visible="yes" active="yes"/>
<layer number="35" name="tGlue" color="7" fill="4" visible="yes" active="yes"/>
<layer number="36" name="bGlue" color="7" fill="5" visible="yes" active="yes"/>
<layer number="37" name="tTest" color="7" fill="1" visible="yes" active="yes"/>
<layer number="38" name="bTest" color="7" fill="1" visible="yes" active="yes"/>
<layer number="39" name="tKeepout" color="4" fill="11" visible="yes" active="yes"/>
<layer number="40" name="bKeepout" color="1" fill="11" visible="yes" active="yes"/>
<layer number="41" name="tRestrict" color="4" fill="10" visible="yes" active="yes"/>
<layer number="42" name="bRestrict" color="1" fill="10" visible="yes" active="yes"/>
<layer number="43" name="vRestrict" color="2" fill="10" visible="yes" active="yes"/>
<layer number="44" name="Drills" color="7" fill="1" visible="yes" active="yes"/>
<layer number="45" name="Holes" color="7" fill="1" visible="yes" active="yes"/>
<layer number="46" name="Milling" color="3" fill="1" visible="yes" active="yes"/>
<layer number="47" name="Measures" color="7" fill="1" visible="yes" active="yes"/>
<layer number="48" name="Document" color="7" fill="1" visible="yes" active="yes"/>
<layer number="49" name="Reference" color="7" fill="1" visible="yes" active="yes"/>
<layer number="50" name="dxf" color="7" fill="1" visible="no" active="no"/>
<layer number="51" name="tDocu" color="7" fill="1" visible="yes" active="yes"/>
<layer number="52" name="bDocu" color="7" fill="1" visible="yes" active="yes"/>
<layer number="53" name="tGND_GNDA" color="7" fill="9" visible="no" active="no"/>
<layer number="54" name="bGND_GNDA" color="1" fill="9" visible="no" active="no"/>
<layer number="56" name="wert" color="7" fill="1" visible="no" active="no"/>
<layer number="57" name="tCAD" color="7" fill="1" visible="no" active="no"/>
<layer number="59" name="tCarbon" color="7" fill="1" visible="no" active="no"/>
<layer number="60" name="bCarbon" color="7" fill="1" visible="no" active="no"/>
<layer number="88" name="SimResults" color="9" fill="1" visible="no" active="no"/>
<layer number="89" name="SimProbes" color="9" fill="1" visible="no" active="no"/>
<layer number="90" name="Modules" color="5" fill="1" visible="no" active="no"/>
<layer number="91" name="Nets" color="2" fill="1" visible="no" active="no"/>
<layer number="92" name="Busses" color="1" fill="1" visible="no" active="no"/>
<layer number="93" name="Pins" color="2" fill="1" visible="no" active="no"/>
<layer number="94" name="Symbols" color="4" fill="1" visible="no" active="no"/>
<layer number="95" name="Names" color="7" fill="1" visible="no" active="no"/>
<layer number="96" name="Values" color="7" fill="1" visible="no" active="no"/>
<layer number="97" name="Info" color="7" fill="1" visible="no" active="no"/>
<layer number="98" name="Guide" color="6" fill="1" visible="no" active="no"/>
<layer number="99" name="SpiceOrder" color="7" fill="1" visible="no" active="no"/>
<layer number="100" name="Muster" color="7" fill="1" visible="no" active="no"/>
<layer number="101" name="Patch_Top" color="12" fill="4" visible="yes" active="yes"/>
<layer number="102" name="Vscore" color="7" fill="1" visible="yes" active="yes"/>
<layer number="103" name="tMap" color="7" fill="1" visible="yes" active="yes"/>
<layer number="104" name="Name" color="7" fill="1" visible="yes" active="yes"/>
<layer number="105" name="tPlate" color="7" fill="1" visible="yes" active="yes"/>
<layer number="106" name="bPlate" color="7" fill="1" visible="yes" active="yes"/>
<layer number="107" name="Crop" color="7" fill="1" visible="yes" active="yes"/>
<layer number="108" name="tplace-old" color="10" fill="1" visible="yes" active="yes"/>
<layer number="109" name="ref-old" color="11" fill="1" visible="yes" active="yes"/>
<layer number="110" name="fp0" color="7" fill="1" visible="yes" active="yes"/>
<layer number="111" name="LPC17xx" color="7" fill="1" visible="yes" active="yes"/>
<layer number="112" name="tSilk" color="7" fill="1" visible="yes" active="yes"/>
<layer number="113" name="IDFDebug" color="7" fill="1" visible="yes" active="yes"/>
<layer number="114" name="Badge_Outline" color="7" fill="1" visible="yes" active="yes"/>
<layer number="115" name="ReferenceISLANDS" color="7" fill="1" visible="yes" active="yes"/>
<layer number="116" name="Patch_BOT" color="9" fill="4" visible="yes" active="yes"/>
<layer number="118" name="Rect_Pads" color="7" fill="1" visible="yes" active="yes"/>
<layer number="121" name="_tsilk" color="7" fill="1" visible="yes" active="yes"/>
<layer number="122" name="_bsilk" color="7" fill="1" visible="yes" active="yes"/>
<layer number="123" name="tTestmark" color="7" fill="1" visible="yes" active="yes"/>
<layer number="124" name="bTestmark" color="7" fill="1" visible="yes" active="yes"/>
<layer number="125" name="_tNames" color="7" fill="1" visible="yes" active="yes"/>
<layer number="126" name="_bNames" color="7" fill="1" visible="yes" active="yes"/>
<layer number="127" name="_tValues" color="7" fill="1" visible="yes" active="yes"/>
<layer number="128" name="_bValues" color="7" fill="1" visible="yes" active="yes"/>
<layer number="129" name="Mask" color="7" fill="1" visible="yes" active="yes"/>
<layer number="131" name="tAdjust" color="7" fill="1" visible="yes" active="yes"/>
<layer number="132" name="bAdjust" color="7" fill="1" visible="yes" active="yes"/>
<layer number="144" name="Drill_legend" color="7" fill="1" visible="yes" active="yes"/>
<layer number="150" name="Notes" color="7" fill="1" visible="yes" active="yes"/>
<layer number="151" name="HeatSink" color="7" fill="1" visible="yes" active="yes"/>
<layer number="152" name="_bDocu" color="7" fill="1" visible="yes" active="yes"/>
<layer number="153" name="FabDoc1" color="7" fill="1" visible="yes" active="yes"/>
<layer number="154" name="FabDoc2" color="7" fill="1" visible="yes" active="yes"/>
<layer number="155" name="FabDoc3" color="7" fill="1" visible="yes" active="yes"/>
<layer number="199" name="Contour" color="7" fill="1" visible="yes" active="yes"/>
<layer number="200" name="200bmp" color="1" fill="10" visible="yes" active="yes"/>
<layer number="201" name="201bmp" color="2" fill="10" visible="yes" active="yes"/>
<layer number="202" name="202bmp" color="3" fill="10" visible="yes" active="yes"/>
<layer number="203" name="203bmp" color="4" fill="10" visible="yes" active="yes"/>
<layer number="204" name="204bmp" color="5" fill="10" visible="yes" active="yes"/>
<layer number="205" name="205bmp" color="6" fill="10" visible="yes" active="yes"/>
<layer number="206" name="206bmp" color="7" fill="10" visible="yes" active="yes"/>
<layer number="207" name="207bmp" color="8" fill="10" visible="yes" active="yes"/>
<layer number="208" name="208bmp" color="9" fill="10" visible="yes" active="yes"/>
<layer number="209" name="209bmp" color="7" fill="1" visible="yes" active="yes"/>
<layer number="210" name="210bmp" color="7" fill="1" visible="yes" active="yes"/>
<layer number="211" name="211bmp" color="7" fill="1" visible="yes" active="yes"/>
<layer number="212" name="212bmp" color="7" fill="1" visible="yes" active="yes"/>
<layer number="213" name="213bmp" color="7" fill="1" visible="yes" active="yes"/>
<layer number="214" name="214bmp" color="7" fill="1" visible="yes" active="yes"/>
<layer number="215" name="215bmp" color="7" fill="1" visible="yes" active="yes"/>
<layer number="216" name="216bmp" color="7" fill="1" visible="yes" active="yes"/>
<layer number="217" name="217bmp" color="18" fill="1" visible="no" active="no"/>
<layer number="218" name="218bmp" color="19" fill="1" visible="no" active="no"/>
<layer number="219" name="219bmp" color="20" fill="1" visible="no" active="no"/>
<layer number="220" name="220bmp" color="21" fill="1" visible="no" active="no"/>
<layer number="221" name="221bmp" color="22" fill="1" visible="no" active="no"/>
<layer number="222" name="222bmp" color="23" fill="1" visible="no" active="no"/>
<layer number="223" name="223bmp" color="24" fill="1" visible="no" active="no"/>
<layer number="224" name="224bmp" color="25" fill="1" visible="no" active="no"/>
<layer number="225" name="225bmp" color="7" fill="1" visible="yes" active="yes"/>
<layer number="226" name="226bmp" color="7" fill="1" visible="yes" active="yes"/>
<layer number="227" name="227bmp" color="7" fill="1" visible="yes" active="yes"/>
<layer number="228" name="228bmp" color="7" fill="1" visible="yes" active="yes"/>
<layer number="229" name="229bmp" color="7" fill="1" visible="yes" active="yes"/>
<layer number="230" name="230bmp" color="7" fill="1" visible="yes" active="yes"/>
<layer number="231" name="231bmp" color="7" fill="1" visible="yes" active="yes"/>
<layer number="232" name="Eagle3D_PG2" color="7" fill="1" visible="yes" active="yes"/>
<layer number="233" name="Eagle3D_PG3" color="7" fill="1" visible="yes" active="yes"/>
<layer number="248" name="Housing" color="7" fill="1" visible="yes" active="yes"/>
<layer number="249" name="Edge" color="7" fill="1" visible="yes" active="yes"/>
<layer number="250" name="Descript" color="3" fill="1" visible="no" active="no"/>
<layer number="251" name="SMDround" color="12" fill="11" visible="no" active="no"/>
<layer number="254" name="cooling" color="7" fill="1" visible="yes" active="yes"/>
<layer number="255" name="routoute" color="7" fill="1" visible="yes" active="yes"/>
</layers>
<board>
<plain>
<wire x1="0.254" y1="7.239" x2="67.544" y2="6.985" width="0" layer="20"/>
<wire x1="67.544" y1="6.985" x2="68.052" y2="56.439" width="0" layer="20"/>
<wire x1="68.052" y1="56.439" x2="0.762" y2="56.693" width="0" layer="20"/>
<wire x1="0.762" y1="56.693" x2="0.254" y2="7.239" width="0" layer="20"/>
<text x="12.573" y="19.304" size="1.778" layer="1" rot="R90">Ryota K</text>
</plain>
<libraries>
<library name="fab">
<packages>
<package name="SOIC14">
<description>&lt;b&gt;Small Outline Package&lt;/b&gt;</description>
<wire x1="-4.267" y1="-1.791" x2="4.267" y2="-1.791" width="0.1524" layer="51"/>
<wire x1="4.267" y1="-1.791" x2="4.267" y2="1.791" width="0.1524" layer="21"/>
<wire x1="4.267" y1="1.791" x2="-4.267" y2="1.791" width="0.1524" layer="51"/>
<wire x1="-4.267" y1="1.791" x2="-4.267" y2="-1.791" width="0.1524" layer="21"/>
<circle x="-3.5052" y="-0.7747" radius="0.5334" width="0.1524" layer="21"/>
<smd name="1" x="-3.81" y="-2.6035" dx="0.6096" dy="2.2098" layer="1"/>
<smd name="14" x="-3.81" y="2.6035" dx="0.6096" dy="2.2098" layer="1"/>
<smd name="2" x="-2.54" y="-2.6035" dx="0.6096" dy="2.2098" layer="1"/>
<smd name="3" x="-1.27" y="-2.6035" dx="0.6096" dy="2.2098" layer="1"/>
<smd name="13" x="-2.54" y="2.6035" dx="0.6096" dy="2.2098" layer="1"/>
<smd name="12" x="-1.27" y="2.6035" dx="0.6096" dy="2.2098" layer="1"/>
<smd name="4" x="0" y="-2.6035" dx="0.6096" dy="2.2098" layer="1"/>
<smd name="11" x="0" y="2.6035" dx="0.6096" dy="2.2098" layer="1"/>
<smd name="5" x="1.27" y="-2.6035" dx="0.6096" dy="2.2098" layer="1"/>
<smd name="6" x="2.54" y="-2.6035" dx="0.6096" dy="2.2098" layer="1"/>
<smd name="10" x="1.27" y="2.6035" dx="0.6096" dy="2.2098" layer="1"/>
<smd name="9" x="2.54" y="2.6035" dx="0.6096" dy="2.2098" layer="1"/>
<smd name="7" x="3.81" y="-2.6035" dx="0.6096" dy="2.2098" layer="1"/>
<smd name="8" x="3.81" y="2.6035" dx="0.6096" dy="2.2098" layer="1"/>
<text x="-4.5085" y="-2.032" size="1.27" layer="25" ratio="10" rot="R90">&gt;NAME</text>
<text x="-2.54" y="-0.6985" size="1.27" layer="27" ratio="10">&gt;VALUE</text>
<rectangle x1="-3.9878" y1="1.8415" x2="-3.6322" y2="2.8575" layer="51"/>
<rectangle x1="-2.7178" y1="1.8415" x2="-2.3622" y2="2.8575" layer="51"/>
<rectangle x1="-1.4478" y1="1.8415" x2="-1.0922" y2="2.8575" layer="51"/>
<rectangle x1="-0.1778" y1="1.8415" x2="0.1778" y2="2.8575" layer="51"/>
<rectangle x1="1.0922" y1="1.8415" x2="1.4478" y2="2.8575" layer="51"/>
<rectangle x1="2.3622" y1="1.8415" x2="2.7178" y2="2.8575" layer="51"/>
<rectangle x1="3.6322" y1="1.8415" x2="3.9878" y2="2.8575" layer="51"/>
<rectangle x1="3.6322" y1="-2.8575" x2="3.9878" y2="-1.8415" layer="51"/>
<rectangle x1="2.3622" y1="-2.8575" x2="2.7178" y2="-1.8415" layer="51"/>
<rectangle x1="1.0922" y1="-2.8575" x2="1.4478" y2="-1.8415" layer="51"/>
<rectangle x1="-0.1778" y1="-2.8575" x2="0.1778" y2="-1.8415" layer="51"/>
<rectangle x1="-1.4478" y1="-2.8575" x2="-1.0922" y2="-1.8415" layer="51"/>
<rectangle x1="-2.7178" y1="-2.8575" x2="-2.3622" y2="-1.8415" layer="51"/>
<rectangle x1="-3.9878" y1="-2.8575" x2="-3.6322" y2="-1.8415" layer="51"/>
</package>
<package name="2X03SMD">
<smd name="1" x="-2.54" y="2.54" dx="2.54" dy="1.27" layer="1"/>
<smd name="3" x="-2.54" y="0" dx="2.54" dy="1.27" layer="1"/>
<smd name="5" x="-2.54" y="-2.54" dx="2.54" dy="1.27" layer="1"/>
<smd name="2" x="2.92" y="2.54" dx="2.54" dy="1.27" layer="1"/>
<smd name="4" x="2.92" y="0" dx="2.54" dy="1.27" layer="1"/>
<smd name="6" x="2.92" y="-2.54" dx="2.54" dy="1.27" layer="1"/>
<text x="-5.08" y="2.54" size="1.27" layer="27">1</text>
<text x="-3.81" y="3.81" size="1.27" layer="25">&gt;NAME</text>
<text x="-3.81" y="-5.08" size="1.27" layer="27">&gt;VALUE</text>
</package>
<package name="2-SMD-5X3MM">
<wire x1="-2.5" y1="1.3" x2="-2.5" y2="1.6" width="0.127" layer="21"/>
<wire x1="-2.5" y1="1.6" x2="2.5" y2="1.6" width="0.127" layer="21"/>
<wire x1="2.5" y1="1.6" x2="2.5" y2="1.3" width="0.127" layer="21"/>
<wire x1="2.5" y1="-1.3" x2="2.5" y2="-1.6" width="0.127" layer="21"/>
<wire x1="2.5" y1="-1.6" x2="-2.5" y2="-1.6" width="0.127" layer="21"/>
<wire x1="-2.5" y1="-1.6" x2="-2.5" y2="-1.3" width="0.127" layer="21"/>
<smd name="P$1" x="-2" y="0" dx="2" dy="2.4" layer="1"/>
<smd name="P$2" x="2" y="0" dx="2" dy="2.4" layer="1"/>
<text x="-2.54" y="2.54" size="1.27" layer="25">&gt;NAME</text>
<text x="-2.54" y="-3.81" size="1.27" layer="27">&gt;VALUE</text>
</package>
<package name="C1206FAB">
<wire x1="-2.032" y1="1.016" x2="2.032" y2="1.016" width="0.127" layer="21"/>
<wire x1="2.032" y1="1.016" x2="2.032" y2="-1.016" width="0.127" layer="21"/>
<wire x1="2.032" y1="-1.016" x2="-2.032" y2="-1.016" width="0.127" layer="21"/>
<wire x1="-2.032" y1="-1.016" x2="-2.032" y2="1.016" width="0.127" layer="21"/>
<smd name="1" x="-1.651" y="0" dx="1.27" dy="1.905" layer="1"/>
<smd name="2" x="1.651" y="0" dx="1.27" dy="1.905" layer="1"/>
<text x="-1.778" y="1.27" size="1.016" layer="25" ratio="15">&gt;NAME</text>
<text x="-1.778" y="-2.286" size="1.016" layer="27" ratio="15">&gt;VALUE</text>
</package>
<package name="LED1206FAB">
<description>LED1206 FAB style (smaller pads to allow trace between)</description>
<wire x1="-2.032" y1="1.016" x2="2.032" y2="1.016" width="0.127" layer="21"/>
<wire x1="2.032" y1="1.016" x2="2.032" y2="-1.016" width="0.127" layer="21"/>
<wire x1="2.032" y1="-1.016" x2="-2.032" y2="-1.016" width="0.127" layer="21"/>
<wire x1="-2.032" y1="-1.016" x2="-2.032" y2="1.016" width="0.127" layer="21"/>
<smd name="1" x="-1.651" y="0" dx="1.27" dy="1.905" layer="1"/>
<smd name="2" x="1.651" y="0" dx="1.27" dy="1.905" layer="1"/>
<text x="-1.778" y="1.27" size="1.016" layer="25" ratio="15">&gt;NAME</text>
<text x="-1.778" y="-2.286" size="1.016" layer="27" ratio="15">&gt;VALUE</text>
</package>
<package name="6MM_SWITCH">
<description>&lt;b&gt;OMRON SWITCH&lt;/b&gt;</description>
<wire x1="3.302" y1="-0.762" x2="3.048" y2="-0.762" width="0.1524" layer="21"/>
<wire x1="3.302" y1="-0.762" x2="3.302" y2="0.762" width="0.1524" layer="21"/>
<wire x1="3.048" y1="0.762" x2="3.302" y2="0.762" width="0.1524" layer="21"/>
<wire x1="3.048" y1="1.016" x2="3.048" y2="2.54" width="0.1524" layer="51"/>
<wire x1="-3.302" y1="0.762" x2="-3.048" y2="0.762" width="0.1524" layer="21"/>
<wire x1="-3.302" y1="0.762" x2="-3.302" y2="-0.762" width="0.1524" layer="21"/>
<wire x1="-3.048" y1="-0.762" x2="-3.302" y2="-0.762" width="0.1524" layer="21"/>
<wire x1="3.048" y1="2.54" x2="2.54" y2="3.048" width="0.1524" layer="51"/>
<wire x1="2.54" y1="-3.048" x2="3.048" y2="-2.54" width="0.1524" layer="51"/>
<wire x1="3.048" y1="-2.54" x2="3.048" y2="-1.016" width="0.1524" layer="51"/>
<wire x1="-2.54" y1="3.048" x2="-3.048" y2="2.54" width="0.1524" layer="51"/>
<wire x1="-3.048" y1="2.54" x2="-3.048" y2="1.016" width="0.1524" layer="51"/>
<wire x1="-2.54" y1="-3.048" x2="-3.048" y2="-2.54" width="0.1524" layer="51"/>
<wire x1="-3.048" y1="-2.54" x2="-3.048" y2="-1.016" width="0.1524" layer="51"/>
<wire x1="-1.27" y1="1.27" x2="-1.27" y2="-1.27" width="0.0508" layer="51"/>
<wire x1="1.27" y1="-1.27" x2="-1.27" y2="-1.27" width="0.0508" layer="51"/>
<wire x1="1.27" y1="-1.27" x2="1.27" y2="1.27" width="0.0508" layer="51"/>
<wire x1="-1.27" y1="1.27" x2="1.27" y2="1.27" width="0.0508" layer="51"/>
<wire x1="-1.27" y1="3.048" x2="-1.27" y2="2.794" width="0.0508" layer="21"/>
<wire x1="1.27" y1="2.794" x2="-1.27" y2="2.794" width="0.0508" layer="21"/>
<wire x1="1.27" y1="2.794" x2="1.27" y2="3.048" width="0.0508" layer="21"/>
<wire x1="1.143" y1="-2.794" x2="-1.27" y2="-2.794" width="0.0508" layer="21"/>
<wire x1="1.143" y1="-2.794" x2="1.143" y2="-3.048" width="0.0508" layer="21"/>
<wire x1="-1.27" y1="-2.794" x2="-1.27" y2="-3.048" width="0.0508" layer="21"/>
<wire x1="2.54" y1="-3.048" x2="2.159" y2="-3.048" width="0.1524" layer="51"/>
<wire x1="-2.54" y1="-3.048" x2="-2.159" y2="-3.048" width="0.1524" layer="51"/>
<wire x1="-2.159" y1="-3.048" x2="-1.27" y2="-3.048" width="0.1524" layer="21"/>
<wire x1="-2.54" y1="3.048" x2="-2.159" y2="3.048" width="0.1524" layer="51"/>
<wire x1="2.54" y1="3.048" x2="2.159" y2="3.048" width="0.1524" layer="51"/>
<wire x1="2.159" y1="3.048" x2="1.27" y2="3.048" width="0.1524" layer="21"/>
<wire x1="1.27" y1="3.048" x2="-1.27" y2="3.048" width="0.1524" layer="21"/>
<wire x1="-1.27" y1="3.048" x2="-2.159" y2="3.048" width="0.1524" layer="21"/>
<wire x1="-1.27" y1="-3.048" x2="1.143" y2="-3.048" width="0.1524" layer="21"/>
<wire x1="1.143" y1="-3.048" x2="2.159" y2="-3.048" width="0.1524" layer="21"/>
<wire x1="3.048" y1="-0.762" x2="3.048" y2="-1.016" width="0.1524" layer="21"/>
<wire x1="3.048" y1="0.762" x2="3.048" y2="1.016" width="0.1524" layer="21"/>
<wire x1="-3.048" y1="-0.762" x2="-3.048" y2="-1.016" width="0.1524" layer="21"/>
<wire x1="-3.048" y1="0.762" x2="-3.048" y2="1.016" width="0.1524" layer="21"/>
<wire x1="-1.27" y1="-2.159" x2="1.27" y2="-2.159" width="0.1524" layer="51"/>
<wire x1="1.27" y1="2.286" x2="-1.27" y2="2.286" width="0.1524" layer="51"/>
<wire x1="-2.413" y1="1.27" x2="-2.413" y2="0.508" width="0.1524" layer="51"/>
<wire x1="-2.413" y1="-0.508" x2="-2.413" y2="-1.27" width="0.1524" layer="51"/>
<wire x1="-2.413" y1="0.508" x2="-2.159" y2="-0.381" width="0.1524" layer="51"/>
<circle x="0" y="0" radius="1.778" width="0.1524" layer="21"/>
<circle x="-2.159" y="-2.159" radius="0.508" width="0.1524" layer="51"/>
<circle x="2.159" y="-2.032" radius="0.508" width="0.1524" layer="51"/>
<circle x="2.159" y="2.159" radius="0.508" width="0.1524" layer="51"/>
<circle x="-2.159" y="2.159" radius="0.508" width="0.1524" layer="51"/>
<circle x="0" y="0" radius="0.635" width="0.0508" layer="51"/>
<circle x="0" y="0" radius="0.254" width="0.1524" layer="21"/>
<smd name="1" x="-3.302" y="2.286" dx="2.286" dy="1.524" layer="1"/>
<smd name="2" x="3.302" y="2.286" dx="2.286" dy="1.524" layer="1"/>
<smd name="3" x="-3.302" y="-2.286" dx="2.286" dy="1.524" layer="1"/>
<smd name="4" x="3.302" y="-2.286" dx="2.286" dy="1.524" layer="1"/>
<text x="-3.048" y="3.683" size="1.27" layer="25" ratio="10">&gt;NAME</text>
<text x="-3.048" y="-5.08" size="1.27" layer="27" ratio="10">&gt;VALUE</text>
<text x="-4.318" y="1.651" size="1.27" layer="51" ratio="10">1</text>
<text x="3.556" y="1.524" size="1.27" layer="51" ratio="10">2</text>
<text x="-4.572" y="-2.794" size="1.27" layer="51" ratio="10">3</text>
<text x="3.556" y="-2.794" size="1.27" layer="51" ratio="10">4</text>
</package>
<package name="R1206FAB">
<wire x1="-2.032" y1="1.016" x2="2.032" y2="1.016" width="0.127" layer="21"/>
<wire x1="2.032" y1="1.016" x2="2.032" y2="-1.016" width="0.127" layer="21"/>
<wire x1="2.032" y1="-1.016" x2="-2.032" y2="-1.016" width="0.127" layer="21"/>
<wire x1="-2.032" y1="-1.016" x2="-2.032" y2="1.016" width="0.127" layer="21"/>
<smd name="1" x="-1.651" y="0" dx="1.27" dy="1.905" layer="1"/>
<smd name="2" x="1.651" y="0" dx="1.27" dy="1.905" layer="1"/>
<text x="-1.778" y="1.27" size="1.016" layer="25" ratio="15">&gt;NAME</text>
<text x="-1.778" y="-2.286" size="1.016" layer="27" ratio="15">&gt;VALUE</text>
</package>
<package name="1X06SMD">
<smd name="1" x="0" y="6.35" dx="2.54" dy="1.27" layer="1"/>
<smd name="2" x="0" y="3.81" dx="2.54" dy="1.27" layer="1"/>
<smd name="3" x="0" y="1.27" dx="2.54" dy="1.27" layer="1"/>
<smd name="4" x="0" y="-1.27" dx="2.54" dy="1.27" layer="1"/>
<smd name="5" x="0" y="-3.81" dx="2.54" dy="1.27" layer="1"/>
<smd name="6" x="0" y="-6.35" dx="2.54" dy="1.27" layer="1"/>
<text x="-1.905" y="-3.175" size="1.27" layer="25" rot="R90">&gt;NAME</text>
</package>
</packages>
</library>
</libraries>
<attributes>
</attributes>
<variantdefs>
</variantdefs>
<classes>
<class number="0" name="default" width="0" drill="0">
</class>
</classes>
<designrules name="fabmodules">
<description language="de">&lt;b&gt;EAGLE Design Rules&lt;/b&gt;
&lt;p&gt;
Die Standard-Design-Rules sind so gewählt, dass sie für 
die meisten Anwendungen passen. Sollte ihre Platine 
besondere Anforderungen haben, treffen Sie die erforderlichen
Einstellungen hier und speichern die Design Rules unter 
einem neuen Namen ab.</description>
<description language="en">&lt;b&gt;EAGLE Design Rules&lt;/b&gt;
&lt;p&gt;
The default Design Rules have been set to cover
a wide range of applications. Your particular design
may have different requirements, so please make the
necessary adjustments and save your customized
design rules under a new name.</description>
<param name="layerSetup" value="(1*16)"/>
<param name="mtCopper" value="0.035mm 0.035mm 0.035mm 0.035mm 0.035mm 0.035mm 0.035mm 0.035mm 0.035mm 0.035mm 0.035mm 0.035mm 0.035mm 0.035mm 0.035mm 0.035mm"/>
<param name="mtIsolate" value="1.5mm 0.15mm 0.2mm 0.15mm 0.2mm 0.15mm 0.2mm 0.15mm 0.2mm 0.15mm 0.2mm 0.15mm 0.2mm 0.15mm 0.2mm"/>
<param name="mdWireWire" value="0.42mm"/>
<param name="mdWirePad" value="0.42mm"/>
<param name="mdWireVia" value="0.42mm"/>
<param name="mdPadPad" value="0.42mm"/>
<param name="mdPadVia" value="0.42mm"/>
<param name="mdViaVia" value="0.42mm"/>
<param name="mdSmdPad" value="0.42mm"/>
<param name="mdSmdVia" value="0.42mm"/>
<param name="mdSmdSmd" value="0.42mm"/>
<param name="mdViaViaSameLayer" value="8mil"/>
<param name="mnLayersViaInSmd" value="2"/>
<param name="mdCopperDimension" value="40mil"/>
<param name="mdDrill" value="0.8mm"/>
<param name="mdSmdStop" value="0mil"/>
<param name="msWidth" value="10mil"/>
<param name="msDrill" value="0.4mm"/>
<param name="msMicroVia" value="9.99mm"/>
<param name="msBlindViaRatio" value="0.5"/>
<param name="rvPadTop" value="0.25"/>
<param name="rvPadInner" value="0.25"/>
<param name="rvPadBottom" value="0.25"/>
<param name="rvViaOuter" value="0.25"/>
<param name="rvViaInner" value="0.25"/>
<param name="rvMicroViaOuter" value="0.25"/>
<param name="rvMicroViaInner" value="0.25"/>
<param name="rlMinPadTop" value="10mil"/>
<param name="rlMaxPadTop" value="20mil"/>
<param name="rlMinPadInner" value="10mil"/>
<param name="rlMaxPadInner" value="20mil"/>
<param name="rlMinPadBottom" value="10mil"/>
<param name="rlMaxPadBottom" value="20mil"/>
<param name="rlMinViaOuter" value="8mil"/>
<param name="rlMaxViaOuter" value="20mil"/>
<param name="rlMinViaInner" value="8mil"/>
<param name="rlMaxViaInner" value="20mil"/>
<param name="rlMinMicroViaOuter" value="4mil"/>
<param name="rlMaxMicroViaOuter" value="20mil"/>
<param name="rlMinMicroViaInner" value="4mil"/>
<param name="rlMaxMicroViaInner" value="20mil"/>
<param name="psTop" value="-1"/>
<param name="psBottom" value="-1"/>
<param name="psFirst" value="-1"/>
<param name="psElongationLong" value="100"/>
<param name="psElongationOffset" value="100"/>
<param name="mvStopFrame" value="1"/>
<param name="mvCreamFrame" value="0"/>
<param name="mlMinStopFrame" value="4mil"/>
<param name="mlMaxStopFrame" value="4mil"/>
<param name="mlMinCreamFrame" value="0mil"/>
<param name="mlMaxCreamFrame" value="0mil"/>
<param name="mlViaStopLimit" value="0mil"/>
<param name="srRoundness" value="0"/>
<param name="srMinRoundness" value="0mil"/>
<param name="srMaxRoundness" value="0mil"/>
<param name="slThermalIsolate" value="10mil"/>
<param name="slThermalsForVias" value="0"/>
<param name="dpMaxLengthDifference" value="10mm"/>
<param name="dpGapFactor" value="2.5"/>
<param name="checkAngle" value="0"/>
<param name="checkFont" value="1"/>
<param name="checkRestrict" value="1"/>
<param name="checkStop" value="0"/>
<param name="checkValues" value="0"/>
<param name="checkNames" value="1"/>
<param name="checkWireStubs" value="1"/>
<param name="checkPolygonWidth" value="0"/>
<param name="useDiameter" value="13"/>
<param name="maxErrors" value="50"/>
</designrules>
<autorouter>
<pass name="Default">
<param name="RoutingGrid" value="50mil"/>
<param name="AutoGrid" value="1"/>
<param name="Efforts" value="0"/>
<param name="TopRouterVariant" value="1"/>
<param name="tpViaShape" value="round"/>
<param name="PrefDir.1" value="a"/>
<param name="PrefDir.2" value="0"/>
<param name="PrefDir.3" value="0"/>
<param name="PrefDir.4" value="0"/>
<param name="PrefDir.5" value="0"/>
<param name="PrefDir.6" value="0"/>
<param name="PrefDir.7" value="0"/>
<param name="PrefDir.8" value="0"/>
<param name="PrefDir.9" value="0"/>
<param name="PrefDir.10" value="0"/>
<param name="PrefDir.11" value="0"/>
<param name="PrefDir.12" value="0"/>
<param name="PrefDir.13" value="0"/>
<param name="PrefDir.14" value="0"/>
<param name="PrefDir.15" value="0"/>
<param name="PrefDir.16" value="a"/>
<param name="cfVia" value="8"/>
<param name="cfNonPref" value="5"/>
<param name="cfChangeDir" value="2"/>
<param name="cfOrthStep" value="2"/>
<param name="cfDiagStep" value="3"/>
<param name="cfExtdStep" value="0"/>
<param name="cfBonusStep" value="1"/>
<param name="cfMalusStep" value="1"/>
<param name="cfPadImpact" value="4"/>
<param name="cfSmdImpact" value="4"/>
<param name="cfBusImpact" value="0"/>
<param name="cfHugging" value="3"/>
<param name="cfAvoid" value="4"/>
<param name="cfPolygon" value="10"/>
<param name="cfBase.1" value="0"/>
<param name="cfBase.2" value="1"/>
<param name="cfBase.3" value="1"/>
<param name="cfBase.4" value="1"/>
<param name="cfBase.5" value="1"/>
<param name="cfBase.6" value="1"/>
<param name="cfBase.7" value="1"/>
<param name="cfBase.8" value="1"/>
<param name="cfBase.9" value="1"/>
<param name="cfBase.10" value="1"/>
<param name="cfBase.11" value="1"/>
<param name="cfBase.12" value="1"/>
<param name="cfBase.13" value="1"/>
<param name="cfBase.14" value="1"/>
<param name="cfBase.15" value="1"/>
<param name="cfBase.16" value="0"/>
<param name="mnVias" value="20"/>
<param name="mnSegments" value="9999"/>
<param name="mnExtdSteps" value="9999"/>
<param name="mnRipupLevel" value="10"/>
<param name="mnRipupSteps" value="100"/>
<param name="mnRipupTotal" value="100"/>
</pass>
<pass name="Follow-me" refer="Default" active="yes">
</pass>
<pass name="Busses" refer="Default" active="yes">
<param name="cfNonPref" value="4"/>
<param name="cfBusImpact" value="4"/>
<param name="cfHugging" value="0"/>
<param name="mnVias" value="0"/>
</pass>
<pass name="Route" refer="Default" active="yes">
</pass>
<pass name="Optimize1" refer="Default" active="yes">
<param name="cfVia" value="99"/>
<param name="cfExtdStep" value="10"/>
<param name="cfHugging" value="1"/>
<param name="mnExtdSteps" value="1"/>
<param name="mnRipupLevel" value="0"/>
</pass>
<pass name="Optimize2" refer="Optimize1" active="yes">
<param name="cfNonPref" value="0"/>
<param name="cfChangeDir" value="6"/>
<param name="cfExtdStep" value="0"/>
<param name="cfBonusStep" value="2"/>
<param name="cfMalusStep" value="2"/>
<param name="cfPadImpact" value="2"/>
<param name="cfSmdImpact" value="2"/>
<param name="cfHugging" value="0"/>
</pass>
<pass name="Optimize3" refer="Optimize2" active="yes">
<param name="cfChangeDir" value="8"/>
<param name="cfPadImpact" value="0"/>
<param name="cfSmdImpact" value="0"/>
</pass>
<pass name="Optimize4" refer="Optimize3" active="yes">
<param name="cfChangeDir" value="25"/>
</pass>
</autorouter>
<elements>
<element name="IC1" library="fab" package="SOIC14" value="ATTINY44-SSU" x="28.575" y="32.766" smashed="yes">
<attribute name="NAME" x="24.0665" y="30.734" size="1.27" layer="25" ratio="10" rot="R90"/>
<attribute name="VALUE" x="26.035" y="32.0675" size="1.27" layer="27" ratio="10"/>
</element>
<element name="U$1" library="fab" package="2X03SMD" value="AVRISPSMD" x="42.926" y="35.941" smashed="yes" rot="R270">
<attribute name="NAME" x="46.736" y="39.751" size="1.27" layer="25" rot="R270"/>
<attribute name="VALUE" x="37.846" y="39.751" size="1.27" layer="27" rot="R270"/>
</element>
<element name="U$2" library="fab" package="2-SMD-5X3MM" value="CRYSTAL" x="29.083" y="24.384" smashed="yes">
<attribute name="NAME" x="26.543" y="26.924" size="1.27" layer="25"/>
<attribute name="VALUE" x="26.543" y="20.574" size="1.27" layer="27"/>
</element>
<element name="C1" library="fab" package="C1206FAB" value="22pF" x="33.655" y="15.24" smashed="yes" rot="R180">
<attribute name="NAME" x="35.433" y="13.97" size="1.016" layer="25" ratio="15" rot="R180"/>
<attribute name="VALUE" x="35.433" y="17.526" size="1.016" layer="27" ratio="15" rot="R180"/>
</element>
<element name="C2" library="fab" package="C1206FAB" value="22pF" x="26.67" y="15.24" smashed="yes">
<attribute name="NAME" x="24.892" y="16.51" size="1.016" layer="25" ratio="15"/>
<attribute name="VALUE" x="24.892" y="12.954" size="1.016" layer="27" ratio="15"/>
</element>
<element name="U$3" library="fab" package="LED1206FAB" value="LEDFAB1206" x="19.939" y="47.371" smashed="yes" rot="R180">
<attribute name="NAME" x="21.717" y="46.101" size="1.016" layer="25" ratio="15" rot="R180"/>
<attribute name="VALUE" x="21.717" y="49.657" size="1.016" layer="27" ratio="15" rot="R180"/>
</element>
<element name="S1" library="fab" package="6MM_SWITCH" value="" x="49.53" y="21.59" smashed="yes">
<attribute name="NAME" x="46.482" y="25.273" size="1.27" layer="25" ratio="10"/>
<attribute name="VALUE" x="46.482" y="16.51" size="1.27" layer="27" ratio="10"/>
</element>
<element name="R1" library="fab" package="R1206FAB" value="" x="35.687" y="32.766" smashed="yes" rot="R90">
<attribute name="NAME" x="34.417" y="30.988" size="1.016" layer="25" ratio="15" rot="R90"/>
<attribute name="VALUE" x="37.973" y="30.988" size="1.016" layer="27" ratio="15" rot="R90"/>
</element>
<element name="R2" library="fab" package="R1206FAB" value="" x="56.134" y="27.559" smashed="yes" rot="R180">
<attribute name="NAME" x="57.912" y="26.289" size="1.016" layer="25" ratio="15" rot="R180"/>
<attribute name="VALUE" x="57.912" y="29.845" size="1.016" layer="27" ratio="15" rot="R180"/>
</element>
<element name="R3" library="fab" package="R1206FAB" value="" x="40.386" y="28.067" smashed="yes">
<attribute name="NAME" x="38.608" y="29.337" size="1.016" layer="25" ratio="15"/>
<attribute name="VALUE" x="38.608" y="25.781" size="1.016" layer="27" ratio="15"/>
</element>
<element name="R4" library="fab" package="R1206FAB" value="" x="40.386" y="23.368" smashed="yes">
<attribute name="NAME" x="38.608" y="24.638" size="1.016" layer="25" ratio="15"/>
<attribute name="VALUE" x="38.608" y="21.082" size="1.016" layer="27" ratio="15"/>
</element>
<element name="R5" library="fab" package="R1206FAB" value="" x="51.435" y="34.29" smashed="yes" rot="R90">
<attribute name="NAME" x="50.165" y="32.512" size="1.016" layer="25" ratio="15" rot="R90"/>
<attribute name="VALUE" x="53.721" y="32.512" size="1.016" layer="27" ratio="15" rot="R90"/>
</element>
<element name="R6" library="fab" package="R1206FAB" value="" x="40.386" y="42.545" smashed="yes">
<attribute name="NAME" x="38.608" y="43.815" size="1.016" layer="25" ratio="15"/>
<attribute name="VALUE" x="38.608" y="40.259" size="1.016" layer="27" ratio="15"/>
</element>
<element name="U$5" library="fab" package="1X06SMD" value="FTDI-SMD-HEADER" x="13.97" y="41.021" smashed="yes">
<attribute name="NAME" x="12.065" y="37.846" size="1.27" layer="25" rot="R90"/>
</element>
<element name="R7" library="fab" package="R1206FAB" value="" x="26.035" y="45.72" smashed="yes" rot="R90">
<attribute name="NAME" x="24.765" y="43.942" size="1.016" layer="25" ratio="15" rot="R90"/>
<attribute name="VALUE" x="28.321" y="43.942" size="1.016" layer="27" ratio="15" rot="R90"/>
</element>
<element name="R8" library="fab" package="R1206FAB" value="" x="9.271" y="39.751" smashed="yes">
<attribute name="NAME" x="7.493" y="41.021" size="1.016" layer="25" ratio="15"/>
<attribute name="VALUE" x="7.493" y="37.465" size="1.016" layer="27" ratio="15"/>
</element>
</elements>
<signals>
<signal name="N$1">
<contactref element="IC1" pad="1"/>
</signal>
<signal name="VCC">
<contactref element="U$1" pad="2"/>
<contactref element="S1" pad="4"/>
<contactref element="S1" pad="3"/>
<contactref element="U$5" pad="3"/>
<wire x1="54.863" y1="33.021" x2="56.134" y2="31.75" width="0.4064" layer="1"/>
<wire x1="56.134" y1="31.75" x2="56.134" y2="20.193" width="0.4064" layer="1"/>
<wire x1="56.134" y1="20.193" x2="55.245" y2="19.304" width="0.4064" layer="1"/>
<wire x1="55.245" y1="19.304" x2="46.228" y2="19.304" width="0.4064" layer="1"/>
<wire x1="46.228" y1="16.891" x2="46.228" y2="19.304" width="0.4064" layer="1"/>
<wire x1="45.466" y1="33.021" x2="54.863" y2="33.021" width="0.4064" layer="1"/>
<wire x1="13.97" y1="42.291" x2="17.145" y2="42.291" width="0.4064" layer="1"/>
<wire x1="17.145" y1="42.291" x2="17.145" y2="10.922" width="0.4064" layer="1"/>
<wire x1="17.145" y1="10.8585" x2="40.1955" y2="10.8585" width="0.4064" layer="1"/>
<wire x1="40.1955" y1="10.8585" x2="46.228" y2="16.891" width="0.4064" layer="1"/>
<wire x1="55.245" y1="19.304" x2="52.832" y2="19.304" width="0" layer="19" extent="1-1"/>
<wire x1="17.145" y1="10.922" x2="17.145" y2="10.8585" width="0" layer="19" extent="1-1"/>
</signal>
<signal name="GND">
<contactref element="IC1" pad="14"/>
<contactref element="U$1" pad="6"/>
<contactref element="C1" pad="2"/>
<contactref element="C2" pad="2"/>
<contactref element="U$3" pad="2"/>
<contactref element="U$5" pad="1"/>
<wire x1="13.97" y1="47.371" x2="18.161" y2="47.371" width="0.4064" layer="1"/>
<wire x1="18.161" y1="47.371" x2="18.288" y2="47.244" width="0.4064" layer="1"/>
<wire x1="18.415" y1="42.672" x2="24.765" y2="42.672" width="0.4064" layer="1"/>
<wire x1="24.765" y1="42.672" x2="24.765" y2="35.941" width="0.4064" layer="1"/>
<wire x1="13.97" y1="47.371" x2="18.288" y2="47.371" width="0.4064" layer="1"/>
<wire x1="18.288" y1="47.371" x2="18.415" y2="47.244" width="0.4064" layer="1"/>
<wire x1="18.415" y1="47.244" x2="18.415" y2="42.672" width="0.4064" layer="1"/>
<wire x1="40.386" y1="33.021" x2="40.386" y2="12.7" width="0.4064" layer="1"/>
<wire x1="40.386" y1="12.7" x2="39.5605" y2="11.8745" width="0.4064" layer="1"/>
<wire x1="39.497" y1="11.811" x2="19.939" y2="11.811" width="0.4064" layer="1"/>
<wire x1="24.638" y1="35.3695" x2="24.765" y2="35.3695" width="0.4064" layer="1"/>
<wire x1="24.638" y1="35.3695" x2="19.939" y2="30.6705" width="0.4064" layer="1"/>
<wire x1="19.939" y1="11.811" x2="19.939" y2="30.6705" width="0.4064" layer="1"/>
<wire x1="22.86" y1="33.4645" x2="22.86" y2="12.827" width="0.4064" layer="1"/>
<wire x1="22.86" y1="12.827" x2="28.321" y2="12.827" width="0.4064" layer="1"/>
<wire x1="28.321" y1="12.827" x2="28.321" y2="15.24" width="0.4064" layer="1"/>
<wire x1="28.321" y1="15.24" x2="32.004" y2="15.24" width="0.4064" layer="1"/>
<wire x1="24.765" y1="35.3695" x2="24.765" y2="35.941" width="0" layer="19" extent="1-1"/>
<wire x1="39.5605" y1="11.8745" x2="39.497" y2="11.811" width="0" layer="19" extent="1-1"/>
<wire x1="22.86" y1="33.4645" x2="24.638" y2="35.3695" width="0" layer="19" extent="1-1"/>
</signal>
<signal name="MOSI">
<contactref element="U$1" pad="4"/>
<contactref element="IC1" pad="7"/>
<wire x1="42.926" y1="33.021" x2="43.561" y2="32.386" width="0.4064" layer="1"/>
<wire x1="43.561" y1="32.386" x2="43.561" y2="27.94" width="0.4064" layer="1"/>
<wire x1="43.561" y1="27.94" x2="42.037" y2="27.94" width="0.4064" layer="1"/>
<wire x1="32.385" y1="30.1625" x2="34.6075" y2="27.94" width="0.4064" layer="1"/>
<wire x1="34.6075" y1="27.94" x2="38.735" y2="27.94" width="0.4064" layer="1"/>
<wire x1="38.735" y1="27.94" x2="42.037" y2="27.94" width="0" layer="19" extent="1-1"/>
</signal>
<signal name="RST">
<contactref element="IC1" pad="4"/>
<contactref element="U$1" pad="5"/>
<wire x1="40.386" y1="44.196" x2="40.386" y2="38.481" width="0.4064" layer="1"/>
<wire x1="40.386" y1="44.196" x2="51.562" y2="44.196" width="0.4064" layer="1"/>
<wire x1="51.562" y1="43.942" x2="51.562" y2="36.195" width="0.4064" layer="1"/>
<wire x1="28.575" y1="30.1625" x2="28.575" y2="28.321" width="0.4064" layer="1"/>
<wire x1="28.575" y1="28.321" x2="28.956" y2="27.94" width="0.4064" layer="1"/>
<wire x1="28.956" y1="27.94" x2="33.147" y2="27.94" width="0.4064" layer="1"/>
<wire x1="33.147" y1="27.94" x2="35.56" y2="25.527" width="0.4064" layer="1"/>
<wire x1="35.56" y1="25.527" x2="35.56" y2="23.241" width="0.4064" layer="1"/>
<wire x1="35.56" y1="23.241" x2="38.862" y2="23.241" width="0.4064" layer="1"/>
<wire x1="51.562" y1="44.196" x2="51.562" y2="43.942" width="0" layer="19" extent="1-1"/>
<wire x1="33.147" y1="27.94" x2="40.386" y2="38.481" width="0" layer="19" extent="1-1"/>
</signal>
<signal name="MISO">
<contactref element="U$1" pad="1"/>
<contactref element="IC1" pad="8"/>
<wire x1="42.037" y1="42.418" x2="45.466" y2="42.418" width="0.4064" layer="1"/>
<wire x1="45.466" y1="42.418" x2="45.466" y2="39.497" width="0.4064" layer="1"/>
<wire x1="32.385" y1="35.3695" x2="32.385" y2="36.195" width="0.4064" layer="1"/>
<wire x1="32.385" y1="36.195" x2="38.608" y2="42.418" width="0.4064" layer="1"/>
<wire x1="45.466" y1="39.497" x2="45.466" y2="38.481" width="0" layer="19" extent="1-1"/>
<wire x1="38.608" y1="42.418" x2="42.037" y2="42.418" width="0" layer="19" extent="1-1"/>
</signal>
<signal name="SCK">
<contactref element="U$1" pad="3"/>
<contactref element="IC1" pad="9"/>
<wire x1="42.926" y1="38.481" x2="42.926" y2="37.846" width="0.4064" layer="1"/>
<wire x1="42.926" y1="37.846" x2="40.513" y2="35.433" width="0.4064" layer="1"/>
<wire x1="40.513" y1="35.433" x2="38.1" y2="35.433" width="0.4064" layer="1"/>
<wire x1="38.1" y1="35.433" x2="38.1" y2="32.766" width="0.4064" layer="1"/>
<wire x1="38.1" y1="32.766" x2="31.496" y2="32.766" width="0.4064" layer="1"/>
<wire x1="31.496" y1="32.766" x2="31.115" y2="33.147" width="0.4064" layer="1"/>
<wire x1="31.115" y1="35.3695" x2="31.115" y2="33.147" width="0.4064" layer="1"/>
</signal>
<signal name="N$2">
<contactref element="IC1" pad="3"/>
<contactref element="U$2" pad="P$2"/>
<contactref element="C1" pad="1"/>
<wire x1="35.306" y1="15.24" x2="35.306" y2="20.161" width="0.4064" layer="1"/>
<wire x1="35.306" y1="20.161" x2="31.083" y2="24.384" width="0.4064" layer="1"/>
<wire x1="31.083" y1="24.384" x2="31.083" y2="26.448" width="0.4064" layer="1"/>
<wire x1="31.083" y1="26.448" x2="30.48" y2="27.051" width="0.4064" layer="1"/>
<wire x1="30.48" y1="27.051" x2="27.686" y2="27.051" width="0.4064" layer="1"/>
<wire x1="27.686" y1="27.051" x2="27.40025" y2="27.33675" width="0.4064" layer="1"/>
<wire x1="27.40025" y1="27.33675" x2="27.40025" y2="30.06725" width="0.4064" layer="1"/>
<wire x1="27.40025" y1="30.06725" x2="27.305" y2="30.1625" width="0" layer="19" extent="1-1"/>
</signal>
<signal name="N$3">
<contactref element="IC1" pad="2"/>
<contactref element="U$2" pad="P$1"/>
<contactref element="C2" pad="1"/>
<wire x1="25.019" y1="15.24" x2="27.083" y2="17.304" width="0.4064" layer="1"/>
<wire x1="27.083" y1="17.399" x2="27.083" y2="24.384" width="0.4064" layer="1"/>
<wire x1="27.083" y1="24.384" x2="26.543" y2="24.924" width="0.4064" layer="1"/>
<wire x1="26.543" y1="24.924" x2="26.543" y2="26.543" width="0.4064" layer="1"/>
<wire x1="26.543" y1="26.543" x2="26.035" y2="26.543" width="0.4064" layer="1"/>
<wire x1="26.035" y1="26.543" x2="26.035" y2="29.21" width="0.4064" layer="1"/>
<wire x1="26.035" y1="29.21" x2="26.035" y2="30.1625" width="0" layer="19" extent="1-1"/>
<wire x1="27.083" y1="17.304" x2="27.083" y2="17.399" width="0" layer="19" extent="1-1"/>
</signal>
<signal name="N$5">
<contactref element="IC1" pad="13"/>
<contactref element="R7" pad="1"/>
<wire x1="26.035" y1="35.306" x2="26.035" y2="44.069" width="0.4064" layer="1"/>
<wire x1="26.035" y1="35.306" x2="26.035" y2="35.3695" width="0" layer="19" extent="1-1"/>
</signal>
<signal name="N$6">
<contactref element="IC1" pad="10"/>
<contactref element="S1" pad="2"/>
<contactref element="S1" pad="1"/>
<wire x1="29.845" y1="35.3695" x2="29.845" y2="37.465" width="0.4064" layer="1"/>
<wire x1="29.845" y1="37.465" x2="38.1" y2="45.72" width="0.4064" layer="1"/>
<wire x1="38.227" y1="45.72" x2="59.436" y2="45.72" width="0.4064" layer="1"/>
<wire x1="59.436" y1="45.72" x2="60.452" y2="44.704" width="0.4064" layer="1"/>
<wire x1="60.452" y1="44.704" x2="60.452" y2="27.813" width="0.4064" layer="1"/>
<wire x1="60.452" y1="27.813" x2="58.293" y2="27.813" width="0.4064" layer="1"/>
<wire x1="52.832" y1="23.876" x2="46.228" y2="23.876" width="0.4064" layer="1"/>
<wire x1="46.228" y1="23.876" x2="50.038" y2="27.686" width="0.4064" layer="1"/>
<wire x1="50.038" y1="27.686" x2="54.483" y2="27.686" width="0.4064" layer="1"/>
<wire x1="38.1" y1="45.72" x2="38.227" y2="45.72" width="0" layer="19" extent="1-1"/>
<wire x1="54.483" y1="27.686" x2="58.293" y2="27.813" width="0" layer="19" extent="1-1"/>
</signal>
<signal name="N$7">
<wire x1="51.943" y1="32.639" x2="42.672" y2="23.368" width="0.4064" layer="1"/>
</signal>
<signal name="N$8">
<contactref element="U$3" pad="1"/>
<contactref element="R7" pad="2"/>
<wire x1="21.59" y1="47.371" x2="25.908" y2="47.371" width="0.4064" layer="1"/>
<wire x1="25.908" y1="47.371" x2="26.035" y2="47.371" width="0" layer="19" extent="1-1"/>
</signal>
<signal name="N$4">
<contactref element="IC1" pad="11"/>
<contactref element="U$5" pad="4"/>
<wire x1="28.575" y1="35.3695" x2="28.575" y2="39.116" width="0.4064" layer="1"/>
<wire x1="30.734" y1="50.419" x2="29.337" y2="51.816" width="0.4064" layer="1"/>
<wire x1="30.734" y1="41.275" x2="30.734" y2="50.419" width="0.4064" layer="1"/>
<wire x1="29.337" y1="51.816" x2="9.525" y2="51.816" width="0.4064" layer="1"/>
<wire x1="9.398" y1="51.816" x2="7.747" y2="50.165" width="0.4064" layer="1"/>
<wire x1="7.747" y1="50.165" x2="7.747" y2="40.132" width="0.4064" layer="1"/>
<wire x1="13.97" y1="39.751" x2="10.795" y2="39.751" width="0.4064" layer="1"/>
<wire x1="28.575" y1="39.116" x2="30.734" y2="41.275" width="0.4064" layer="1"/>
<wire x1="9.398" y1="51.816" x2="9.525" y2="51.816" width="0" layer="19" extent="1-1"/>
<wire x1="10.795" y1="39.751" x2="7.747" y2="40.132" width="0" layer="19" extent="1-1"/>
</signal>
<signal name="N$9">
<contactref element="IC1" pad="12"/>
<contactref element="U$5" pad="5"/>
<wire x1="28.321" y1="42.037" x2="27.432" y2="42.037" width="0.4064" layer="1"/>
<wire x1="28.321" y1="49.657" x2="28.321" y2="42.037" width="0.4064" layer="1"/>
<wire x1="28.321" y1="49.657" x2="27.686" y2="50.292" width="0.4064" layer="1"/>
<wire x1="27.686" y1="50.292" x2="10.922" y2="50.292" width="0.4064" layer="1"/>
<wire x1="10.922" y1="50.292" x2="9.271" y2="48.641" width="0.4064" layer="1"/>
<wire x1="9.271" y1="48.641" x2="9.271" y2="37.211" width="0.4064" layer="1"/>
<wire x1="9.271" y1="37.211" x2="13.208" y2="37.211" width="0.4064" layer="1"/>
<wire x1="27.432" y1="42.037" x2="27.305" y2="41.91" width="0.4064" layer="1"/>
<wire x1="27.305" y1="41.91" x2="27.305" y2="35.3695" width="0.4064" layer="1"/>
<wire x1="13.208" y1="37.211" x2="13.97" y2="37.211" width="0" layer="19" extent="1-1"/>
</signal>
</signals>
<mfgpreviewcolors>
<mfgpreviewcolor name="soldermaskcolor" color="0xC8008000"/>
<mfgpreviewcolor name="silkscreencolor" color="0xFFFEFEFE"/>
<mfgpreviewcolor name="backgroundcolor" color="0xFF282828"/>
<mfgpreviewcolor name="coppercolor" color="0xFFFFBF00"/>
<mfgpreviewcolor name="substratecolor" color="0xFF786E46"/>
</mfgpreviewcolors>
</board>
</drawing>
</eagle>
